{
  "websiteTitle": "Aleph1",
  "name": "Harold Camacho",
  "cover": {
    "image": "/images/2018_04_12_Harold_Camacho-16.jpg",
    "text": "Harold Camacho",
    "button": {
      "text": "Contact",
      "link": "https://aleph1.bandcamp.com/album/unravel"
    }
  },
  "about": {
    "email": "alephone1@gmail.com",
    "profilePicture": "/images/2018_04_12_Harold_Camacho-31.jpg",
    "bio": "Harold Camacho, Colombian born, Toronto based drummer and sound designer graduated from Humber College’s bachelor of music. Harold Camacho who also goes under the moniker and project name ALEPH, has been part of the Toronto music scene for the past 5 years performing, recording and collaborating with different local acts as drummer/sound designer. in the heart of his creative process lays the need to experiment/create interesting sonorities by blurring the lines between acoustics and electronics. His solo work includes two EPs “Unravel” and “Where I Go To Listen”. In which he relies heavily on the use of found sounds in the biophany merged with electronically designed textures and rhythms.",
    "slogan": "In the heart of my creative process lays the need to experiment/create new sonorities by blurring the lines between acoustics and electronics."
  },
  "social": {
    "bandcamp": "https://aleph1.bandcamp.com"
  },
  "albums": [
    {
      "title": "Where I Go To Listen",
      "img": "https://f4.bcbits.com/img/a3650777269_2.jpg",
      "link": "https://aleph1.bandcamp.com/album/where-i-go-to-listen"
    },
    {
      "title": "Unravel",
      "img": "https://f4.bcbits.com/img/a0840395772_2.jpg",
      "link": "https://aleph1.bandcamp.com/album/unravel"
    }
  ],
  "projects": [
    {
      "title": "Zar - Short Film By Ghazal Therania",
      "link": "https://teataup.com/zar"
    },
    {
      "title": "Drifter at Sea - Short film by Larissa Chahley",
      "link": "https://www.youtube.com/watch?v=BaOwfPLl-o4"
    },
    {
      "title": "Honest Magic - Multi-media Installation",
      "link": "http://www.kennedygallery.org/exhibitions/honest-magic"
    },
    {
      "title": "Multimedia Art exhibition - Lulu Ladron Deguevara",
      "link": "http://findlulu.ca/Site/Estados_transitorios.html"
    }
  ],
  "events": []
}
